…
head(PAN_ColonyData)
colnames(PAN_ColonyData)     
length(names(PAN_ColonyData))


# Change the names of columns 092022_condition and 102023_condition
names(PAN_ColonyData)[14:19] <- c("Sep_2022", "092022_Percentage", "Oct_2023","102023_Percentage","102023_Notes","Jul_2024")

#organize data into species
all_species <- PAN_ColonyData %>%
 select(Species, Sep_2022, Oct_2023, Jul_2024) %>%
 pivot_longer(cols = c(Sep_2022, Oct_2023, Jul_2024))
all_species

# A tibble: 267 × 3
   Species name     value   
   <chr>   <chr>    <chr>   
 1 CNAT    Sep_2022 Healthy 
 2 CNAT    Oct_2023 Paled   
 3 CNAT    Jul_2024 Healthy 
 4 CNAT    Sep_2022 Healthy 
 5 CNAT    Oct_2023 Bleached
 6 CNAT    Jul_2024 Paled   
 7 CNAT    Sep_2022 Healthy 
 8 CNAT    Oct_2023 Paled   
 9 CNAT    Jul_2024 Healthy 
10 CNAT    Sep_2022 Healthy 
# ℹ 257 more rows
# ℹ Use `print(n = ...)` to see more rows
…
