…
The following objects are masked from ‘package:tidyr’:

    expand, pack, unpack

> getwd()
[1] "/Users/carolinedesouza/Documents/SCTLD/Coral_Code/PANAMA_Code"
> PAN.BDT_ColonyData_copy <- read.csv("PAN-BDT_ColonyData_copy.csv")
> # Change the names of columns 092022_condition and 102023_condition
> names(PAN.BDT_ColonyData_copy)[14:16] <- c("Sep_2022", "X092022_Percentage", "Oct_2023")
> #making a data frame that isolates transect and condition
> combined_colony_data <- PAN.BDT_ColonyData_copy %>%
+   select(Transect, Sep_2022, Oct_2023) %>%
+   pivot_longer(cols = c(Sep_2022, Oct_2023))
> combined_colony_data
# A tibble: 176 × 3
   Transect  name     value   
   <chr>     <chr>    <chr>   
 1 STRI Reef Sep_2022 Healthy 
 2 STRI Reef Oct_2023 Paled   
 3 STRI Reef Sep_2022 Healthy 
 4 STRI Reef Oct_2023 Bleached
 5 STRI Reef Sep_2022 Healthy 
 6 STRI Reef Oct_2023 Paled   
 7 STRI Reef Sep_2022 Healthy 
 8 STRI Reef Oct_2023 Bleached
 9 STRI Reef Sep_2022 Healthy 
10 STRI Reef Oct_2023 Paled   
# ℹ 166 more rows
# ℹ Use `print(n = ...)` to see more rows
…
+   labs(x = "Date Sampled", y = "# of Colonies", title = "Bleaching of Coral Species Over Time", fill = "Condition") +
+   theme_minimal() +
+   theme(legend.position = "bottom", text = element_text(size=10),
+         plot.background = element_rect(fill = "lightgrey")) +  # Set the background color to light grey
+   facet_wrap(vars(Transect), ncol = 10L)
> 
> # Save the plot as a PNG file
> ggsave("combined_colony_plot.png", plot = combined_colony_plot, width = 10, height = 6, units = "in", dpi = 300)
> #isolating T1 and T2
> T1_T2_species <- PAN.BDT_ColonyData_copy %>%
+   filter(Transect %in% c("STRI Reef", "Juan Point Reef")) %>%
+   select(Species, Sep_2022, Oct_2023) %>%
+   pivot_longer(cols = c(Sep_2022, Oct_2023))
> T1_T2_species
# A tibble: 112 × 3
   Species name     value   
   <chr>   <chr>    <chr>   
 1 CNAT    Sep_2022 Healthy 
 2 CNAT    Oct_2023 Paled   
 3 CNAT    Sep_2022 Healthy 
 4 CNAT    Oct_2023 Bleached
 5 CNAT    Sep_2022 Healthy 
 6 CNAT    Oct_2023 Paled   
 7 CNAT    Sep_2022 Healthy 
 8 CNAT    Oct_2023 Bleached
 9 CNAT    Sep_2022 Healthy 
10 CNAT    Oct_2023 Paled   
# ℹ 102 more rows
# ℹ Use `print(n = ...)` to see more rows
…
